lab 5
…
Use group_by() and summarize() to find the min position, max position and total number of positions for each chromosomes.

data_3_<- SNPs %>%
  filter(!is.na(position)) %>%
  group_by(chromosome) %>%
  summarize(
    mean_position = mean(position),
    min_position = min(position),
    max_position = max(position),
    n = n()
  )

data_3_

## # A tibble: 25 x 5
##    chromosome mean_position min_position max_position     n
##    <fct>              <dbl>        <int>        <int> <int>
##  1 1             125020489.        82154    249218992 76909
##  2 10             67574158.        98087    135508269 50322
##  3 11             67384535.       198510    134940416 47972
##  4 12             66628576.       191619    133777645 47125
##  5 13             67937638.     19058717    115103529 36078
##  6 14             63201891.     19255726    107287663 30818
##  7 15             64292094.     20034919    102461162 28400
##  8 16             47387660.        88165     90163275 30167
##  9 17             40907497.         8547     81051007 26688
## 10 18             40664811.        13034     78015180 27971
## # ... with 15 more rows

Exercise 4

Building on ex3 create using mutate a new column with the density of SNPs for each chromosome based the max position - min position divide by the total number of SNPs

data_4_<-SNPs %>%
  filter(!is.na(position)) %>%
  group_by(chromosome) %>%
  mutate(density = 
           (max(position)-min(position))/n())

data_4_

## # A tibble: 960,614 x 5
## # Groups:   chromosome [25]
##    rsid       chromosome position genotype density
##    <fct>      <fct>         <int> <fct>      <dbl>
##  1 rs4477212  1             82154 AA         3239.
##  2 rs3094315  1            752566 AA         3239.
##  3 rs3131972  1            752721 GG         3239.
##  4 rs12124819 1            776546 AG         3239.
##  5 rs11240777 1            798959 AG         3239.
##  6 rs6681049  1            800007 CC         3239.
##  7 rs4970383  1            838555 AC         3239.
##  8 rs4475691  1            846808 CT         3239.
##  9 rs7537756  1            854250 AG         3239.
## 10 rs13302982 1            861808 GG         3239.
## # ... with 960,604 more rows

Exercise 5

Building on ex3 sort chromosomes based on SNP density.

data_5_<-SNPs %>%
  filter(!is.na(position)) %>%
  group_by(chromosome) %>%
  mutate(density = (max(position)-min(position))/n()) %>%
  arrange(density)

data_5_

## # A tibble: 960,614 x 5
## # Groups:   chromosome [25]
##    rsid     chromosome position genotype density
##    <fct>    <fct>         <int> <fct>      <dbl>
##  1 i4001200 MT                3 T           6.74
##  2 i4001110 MT                7 A           6.74
##  3 i4001358 MT                9 G           6.74
##  4 i4000553 MT               26 C           6.74
##  5 i4001079 MT               40 T           6.74
##  6 i4001190 MT               41 C           6.74
##  7 i4000964 MT               43 C           6.74
##  8 i4001177 MT               46 T           6.74
##  9 i4000987 MT               49 A           6.74
## 10 i4000979 MT               51 T           6.74
## # ... with 960,604 more rows
…
